<?xml version="1.0" encoding="UTF-8"?>
<svg width="30px" height="30px" viewBox="0 0 30 30" version="1.1" xmlns="http://www.w3.org/2000/svg" xmlns:xlink="http://www.w3.org/1999/xlink">
    <!-- Generator: Sketch 52.2 (67145) - http://www.bohemiancoding.com/sketch -->
    <title>Iconography/mobile-close</title>
    <desc>Created with Sketch.</desc>
    <g id="styles" stroke="none" stroke-width="1" fill="none" fill-rule="evenodd">
        <g id="Courses-Library" transform="translate(-471.000000, -1891.000000)" fill="#187DC1">
            <g id="Stacked-Group" transform="translate(111.000000, 1891.000000)">
                <g id="Component-/-Navigation-/-Menu-Close" transform="translate(360.000000, 0.000000)">
                    <path d="M14.7781746,13.363961 L8.41421356,7 L7,8.41421356 L13.363961,14.7781746 L7,21.1421356 L8.41421356,22.5563492 L14.7781746,16.1923882 L21.1421356,22.5563492 L22.5563492,21.1421356 L16.1923882,14.7781746 L22.5563492,8.41421356 L21.1421356,7 L14.7781746,13.363961 Z M5,3.94430453e-31 L25,3.94430453e-31 C27.7614237,-5.07265313e-16 30,2.23857625 30,5 L30,25 C30,27.7614237 27.7614237,30 25,30 L5,30 C2.23857625,30 -1.43817996e-15,27.7614237 -1.77635684e-15,25 L3.94430453e-31,5 C-3.38176876e-16,2.23857625 2.23857625,-1.26909153e-15 5,3.94430453e-31 Z" id="Shape"></path>
                </g>
            </g>
        </g>
    </g>
</svg>