<?xml version="1.0" encoding="UTF-8"?>
<svg width="30px" height="30px" viewBox="0 0 30 30" version="1.1" xmlns="http://www.w3.org/2000/svg" xmlns:xlink="http://www.w3.org/1999/xlink">
    <!-- Generator: Sketch 52.2 (67145) - http://www.bohemiancoding.com/sketch -->
    <title>Iconography/mobile-menu</title>
    <desc>Created with Sketch.</desc>
    <defs>
        <path d="M5,0 L25,0 C27.7614237,-5.07265313e-16 30,2.23857625 30,5 L30,25 C30,27.7614237 27.7614237,30 25,30 L5,30 C2.23857625,30 -1.43817996e-15,27.7614237 -1.77635684e-15,25 L0,5 C-3.38176876e-16,2.23857625 2.23857625,-1.26909153e-15 5,-1.77635684e-15 Z M5,10 L25,10 L25,8 L5,8 L5,10 Z M5,16 L25,16 L25,14 L5,14 L5,16 Z M5,22 L25,22 L25,20 L5,20 L5,22 Z" id="path-1"></path>
    </defs>
    <g id="styles" stroke="none" stroke-width="1" fill="none" fill-rule="evenodd">
        <g id="Courses-Library" transform="translate(-521.000000, -1891.000000)">
            <g id="Stacked-Group" transform="translate(111.000000, 1891.000000)">
                <g id="Component-/-Navigation-/-Menu" transform="translate(410.000000, 0.000000)">
                    <mask id="mask-2" fill="white">
                        <use xlink:href="#path-1"></use>
                    </mask>
                    <use id="Mask" fill="#187DC1" fill-rule="evenodd" xlink:href="#path-1"></use>
                </g>
            </g>
        </g>
    </g>
</svg>