<?xml version="1.0" encoding="UTF-8"?>
<svg width="20px" height="20px" viewBox="0 0 20 20" version="1.1" xmlns="http://www.w3.org/2000/svg" xmlns:xlink="http://www.w3.org/1999/xlink">
    <!-- Generator: Sketch 52.2 (67145) - http://www.bohemiancoding.com/sketch -->
    <title>Iconography/search-lightBlue</title>
    <desc>Created with Sketch.</desc>
    <defs>
        <path d="M14,8.5 C14,6.98585552 13.4618729,5.69066758 12.3856027,4.61439732 C11.3093324,3.53812706 10.0141445,3 8.5,3 C6.98585552,3 5.69066758,3.53812706 4.61439732,4.61439732 C3.53812706,5.69066758 3,6.98585552 3,8.5 C3,10.0141445 3.53812706,11.3093324 4.61439732,12.3856027 C5.69066758,13.4618729 6.98585552,14 8.5,14 C10.0141445,14 11.3093324,13.4618729 12.3856027,12.3856027 C13.4618729,11.3093324 14,10.0141445 14,8.5 Z M20,18.4615385 C20,18.8782072 19.8477579,19.2387805 19.5432692,19.5432692 C19.2387805,19.8477579 18.8782072,20 18.4615385,20 C18.028844,20 17.6682707,19.8477579 17.3798077,19.5432692 L13.2572115,15.4326923 C11.8229095,16.426287 10.2243678,16.9230769 8.46153846,16.9230769 C7.3156994,16.9230769 6.21995715,16.7007234 5.17427885,16.2560096 C4.12860054,15.8112959 3.22716725,15.2103403 2.46995192,14.453125 C1.7127366,13.6959097 1.11178107,12.7944764 0.667067308,11.7487981 C0.222353546,10.7031198 0,9.60737752 0,8.46153846 C0,7.3156994 0.222353546,6.21995715 0.667067308,5.17427885 C1.11178107,4.12860054 1.7127366,3.22716725 2.46995192,2.46995192 C3.22716725,1.7127366 4.12860054,1.11178107 5.17427885,0.667067308 C6.21995715,0.222353546 7.3156994,0 8.46153846,0 C9.60737752,0 10.7031198,0.222353546 11.7487981,0.667067308 C12.7944764,1.11178107 13.6959097,1.7127366 14.453125,2.46995192 C15.2103403,3.22716725 15.8112959,4.12860054 16.2560096,5.17427885 C16.7007234,6.21995715 16.9230769,7.3156994 16.9230769,8.46153846 C16.9230769,10.2243678 16.426287,11.8229095 15.4326923,13.2572115 L19.5552885,17.3798077 C19.8517643,17.6762835 20,18.0368569 20,18.4615385 Z" id="path-1"></path>
    </defs>
    <g id="styles" stroke="none" stroke-width="1" fill="none" fill-rule="evenodd">
        <g id="Courses-Library" transform="translate(-150.000000, -1932.000000)">
            <g id="Icons-/-Search" transform="translate(150.000000, 1932.000000)">
                <mask id="mask-2" fill="white">
                    <use xlink:href="#path-1"></use>
                </mask>
                <use id="Mask" fill="#83C1E9" fill-rule="evenodd" xlink:href="#path-1"></use>
            </g>
        </g>
    </g>
</svg>